<?xml version="1.0" encoding="UTF-8" standalone="no"?>
<svg
   xmlns:dc="http://purl.org/dc/elements/1.1/"
   xmlns:cc="http://creativecommons.org/ns#"
   xmlns:rdf="http://www.w3.org/1999/02/22-rdf-syntax-ns#"
   xmlns:svg="http://www.w3.org/2000/svg"
   xmlns="http://www.w3.org/2000/svg"
   xmlns:sodipodi="http://sodipodi.sourceforge.net/DTD/sodipodi-0.dtd"
   xmlns:inkscape="http://www.inkscape.org/namespaces/inkscape"
   class="thumb"
   width="480"
   height="480"
   viewBox="175 -205 288.4 288"
   version="1.1"
   id="svg116"
   sodipodi:docname="icon.svg"
   inkscape:version="0.92.3 (2405546, 2018-03-11)"
   inkscape:export-filename="/home/davidg/Projects/shoppelister/asset-src/icon-1024.png"
   inkscape:export-xdpi="204.8"
   inkscape:export-ydpi="204.8">
  <metadata
     id="metadata120">
    <rdf:RDF>
      <cc:Work
         rdf:about="">
        <dc:format>image/svg+xml</dc:format>
        <dc:type
           rdf:resource="http://purl.org/dc/dcmitype/StillImage" />
        <dc:title />
      </cc:Work>
    </rdf:RDF>
  </metadata>
  <sodipodi:namedview
     pagecolor="#727672"
     bordercolor="#666666"
     borderopacity="1"
     objecttolerance="10"
     gridtolerance="10"
     guidetolerance="10"
     inkscape:pageopacity="0"
     inkscape:pageshadow="2"
     inkscape:window-width="1836"
     inkscape:window-height="2053"
     id="namedview118"
     showgrid="false"
     inkscape:zoom="1.888"
     inkscape:cx="192.07385"
     inkscape:cy="87.54289"
     inkscape:window-x="1994"
     inkscape:window-y="46"
     inkscape:window-maximized="0"
     inkscape:current-layer="svg116"
     viewbox-x="175"
     viewbox-width="288.4"
     viewbox-y="-205" />
  <defs
     id="defs2" />
  <ellipse
     id="path47"
     cx="319.32092"
     cy="-60.961815"
     rx="144.32094"
     ry="144.16182"
     style="stroke-width:0.60083336;fill:#fffff4;fill-opacity:1" />
  <g
     id="g220"
     transform="translate(3.18238,-312)">
    <g
       transform="matrix(3.2180564,0,0,3.2180564,269.0122,313.89603)"
       id="g21">
      <svg
         width="17.207001"
         height="17.596001"
         viewBox="33.039 70.197 17.207 17.596"
         version="1.1"
         id="svg19">
        <defs
           id="defs9">
          <linearGradient
             x1="39.052094"
             y1="76.945709"
             x2="46.451035"
             y2="76.945709"
             id="linearGradientSjw41g8274"
             gradientTransform="scale(0.97405792,1.026633)"
             gradientUnits="userSpaceOnUse">
            <stop
               offset="0%"
               stop-color="#ff6fa0"
               id="stop4" />
            <stop
               offset="100%"
               stop-color="#ff6fa0"
               id="stop6" />
          </linearGradient>
        </defs>
        <g
           id="g11" />
        <g
           id="g13" />
        <g
           id="g17">
          <path
             d="m 38.039,76.873 c 0,-0.928 0.709,-1.676 1.594,-1.676 h 4.027 c 0.877,0 1.586,0.748 1.586,1.676 v 4.24 c 0,0.926 -0.709,1.68 -1.586,1.68 h -4.027 c -0.885,0 -1.594,-0.754 -1.594,-1.68 z"
             style="fill:url(#linearGradientSjw41g8274);stroke:none"
             id="path15"
             inkscape:connector-curvature="0" />
        </g>
      </svg>
    </g>
    <g
       transform="matrix(3.2180564,0,0,3.2180564,233.0224,313.89603)"
       id="g40">
      <svg
         width="17.202999"
         height="17.596001"
         viewBox="21.865 70.197 17.203 17.596"
         version="1.1"
         id="svg38">
        <defs
           id="defs28">
          <linearGradient
             x1="27.588152"
             y1="76.924347"
             x2="34.985043"
             y2="76.924347"
             id="linearGradientSjw41g827a"
             gradientTransform="scale(0.97378758,1.026918)"
             gradientUnits="userSpaceOnUse">
            <stop
               offset="0%"
               stop-color="#ff9fbf"
               id="stop23" />
            <stop
               offset="100%"
               stop-color="#ff9fbf"
               id="stop25" />
          </linearGradient>
        </defs>
        <g
           id="g30" />
        <g
           id="g32" />
        <g
           id="g36">
          <path
             d="m 26.865,76.873 c 0,-0.928 0.711,-1.676 1.578,-1.676 h 4.039 c 0.881,0 1.586,0.748 1.586,1.676 v 4.24 c 0,0.926 -0.705,1.68 -1.586,1.68 h -4.039 c -0.867,0 -1.578,-0.754 -1.578,-1.68 z"
             style="fill:url(#linearGradientSjw41g827a);stroke:none"
             id="path34"
             inkscape:connector-curvature="0" />
        </g>
      </svg>
    </g>
    <g
       transform="matrix(3.2180564,0,0,3.2180564,303.7392,313.89603)"
       id="g59">
      <svg
         width="17.195"
         height="17.596001"
         viewBox="43.826 70.197 17.195 17.596"
         version="1.1"
         id="svg57">
        <defs
           id="defs47">
          <linearGradient
             x1="50.168167"
             y1="76.881622"
             x2="57.560947"
             y2="76.881622"
             id="linearGradientSjw41g827g"
             gradientTransform="scale(0.97324666,1.0274888)"
             gradientUnits="userSpaceOnUse">
            <stop
               offset="0%"
               stop-color="#ff4081"
               id="stop42" />
            <stop
               offset="100%"
               stop-color="#ff4081"
               id="stop44" />
          </linearGradient>
        </defs>
        <g
           id="g49" />
        <g
           id="g51" />
        <g
           id="g55">
          <path
             d="m 48.826,76.873 c 0,-0.928 0.703,-1.676 1.576,-1.676 h 4.043 c 0.865,0 1.576,0.748 1.576,1.676 v 4.24 c 0,0.926 -0.711,1.68 -1.576,1.68 h -4.043 c -0.873,0 -1.576,-0.754 -1.576,-1.68 z"
             style="fill:url(#linearGradientSjw41g827g);stroke:none"
             id="path53"
             inkscape:connector-curvature="0" />
        </g>
      </svg>
    </g>
    <g
       transform="matrix(3.2180564,0,0,3.2180564,204.44744,96.838322)"
       id="g78">
      <svg
         width="74.208275"
         height="95"
         viewBox="13 3 74.208275 95"
         version="1.1"
         id="svg76">
        <defs
           id="defs66">
          <linearGradient
             x1="20.710304"
             y1="43.891197"
             x2="94.586571"
             y2="43.891197"
             id="linearGradientSjw41g827m"
             gradientTransform="scale(0.8691326,1.1505724)"
             gradientUnits="userSpaceOnUse">
            <stop
               offset="0%"
               stop-color="#8bc34a"
               id="stop61" />
            <stop
               offset="100%"
               stop-color="#8bc34a"
               id="stop63" />
          </linearGradient>
        </defs>
        <g
           id="g68" />
        <g
           id="g70" />
        <g
           id="g74">
          <path
             d="M 65.527,26.766 65.5,17.173 C 65.5,12.084 61.525,8 56.568,8 H 26.709 C 21.758,8 18,12.084 18,17.173 V 83.719 C 18,88.809 21.758,93 26.709,93 h 29.859 c 4.957,0 8.932,-4.191 8.932,-9.281 l 0.027,-15.453 c 1.287,0.701 2.779,1.086 4.312,1.086 4.934,0 8.948,-4.021 8.948,-8.955 0,-2.362 -0.921,-4.518 -2.422,-6.119 1.216,-0.729 2.112,-1.949 2.413,-3.418 l 3.326,-16.268 c 0.287,-1.406 -0.025,-2.882 -0.855,-4.05 -0.83,-1.167 -2.122,-1.946 -3.543,-2.137 z M 26.709,12 h 29.859 c 2.641,0 4.682,2.272 4.682,5.048 l 0.044,9.124 -5.052,-0.686 0.008,-5.25 C 56.25,18.842 55.15,18 53.84,18 H 29.449 C 28.133,18 27,18.608 27,20.002 V 68.977 C 27,70.359 28.133,72 29.449,72 H 53.84 C 55.15,72 56,70.359 56,68.977 V 67 h 5 V 83.719 C 61,86.488 59.209,89 56.568,89 H 26.709 C 24.08,89 22,86.488 22,83.719 V 17.173 C 22,14.397 24.08,12 26.709,12 Z m 23.83,51 c -0.854,1 -2.537,2.442 -4.384,2.442 -2.733,0 -4.957,-2.305 -4.957,-5.038 0,-2.65 2.095,-4.883 4.724,-5.013 L 47.178,51.4 42.173,31.152 39.396,29.291 c -0.116,0.03 -0.253,0.056 -0.409,0.056 -1.719,0 -3.118,-1.399 -3.118,-3.118 0,-1.72 1.399,-3.12 3.118,-3.12 1.719,0 3.117,1.399 3.117,3.118 0,0.125 -0.016,0.239 -0.038,0.344 l 2.259,1.509 32.84,4.389 c 0.3,0.04 0.57,0.203 0.746,0.45 0.175,0.246 0.24,0.553 0.18,0.85 l -3.326,16.265 c -0.101,0.493 -0.525,0.848 -1.027,0.867 l -22.772,0.875 -1.517,4.893 C 50.138,57.28 50.642,58 50.904,59 h 14.349 c 0.655,-2 2.483,-3.396 4.587,-3.396 2.674,0 4.85,2.152 4.85,4.825 0,2.674 -2.176,5.045 -4.85,5.045 C 68.002,65.474 66.344,64 65.52,63 Z"
             style="fill:url(#linearGradientSjw41g827m);stroke:none"
             id="path72"
             inkscape:connector-curvature="0" />
        </g>
      </svg>
    </g>
  </g>
</svg>
