<?xml version="1.0" encoding="UTF-8" standalone="no"?>
<svg
   xmlns:dc="http://purl.org/dc/elements/1.1/"
   xmlns:cc="http://creativecommons.org/ns#"
   xmlns:rdf="http://www.w3.org/1999/02/22-rdf-syntax-ns#"
   xmlns:svg="http://www.w3.org/2000/svg"
   xmlns="http://www.w3.org/2000/svg"
   xmlns:sodipodi="http://sodipodi.sourceforge.net/DTD/sodipodi-0.dtd"
   xmlns:inkscape="http://www.inkscape.org/namespaces/inkscape"
   class="thumb"
   width="1700"
   height="300"
   viewBox="0 0 1700 300"
   version="1.1"
   id="svg116"
   sodipodi:docname="logo-wider.svg"
   inkscape:export-filename="/home/davidg/Projects/shoplystr/asset-src/logo-wider.png"
   inkscape:export-xdpi="20.97234"
   inkscape:export-ydpi="20.97234"
   inkscape:version="0.92.3 (2405546, 2018-03-11)">
  <metadata
     id="metadata120">
    <rdf:RDF>
      <cc:Work
         rdf:about="">
        <dc:format>image/svg+xml</dc:format>
        <dc:type
           rdf:resource="http://purl.org/dc/dcmitype/StillImage" />
        <dc:title />
      </cc:Work>
    </rdf:RDF>
  </metadata>
  <sodipodi:namedview
     pagecolor="#ffffff"
     bordercolor="#666666"
     borderopacity="1"
     objecttolerance="10"
     gridtolerance="10"
     guidetolerance="10"
     inkscape:pageopacity="0"
     inkscape:pageshadow="2"
     inkscape:window-width="3692"
     inkscape:window-height="2114"
     id="namedview118"
     showgrid="false"
     showborder="true"
     inkscape:zoom="1.3350176"
     inkscape:cx="750.06913"
     inkscape:cy="317.87791"
     inkscape:window-x="148"
     inkscape:window-y="46"
     inkscape:window-maximized="1"
     inkscape:current-layer="svg116"
     viewbox-width="1245"
     viewbox-height="100"
     scale-x="1" />
  <defs
     id="defs2" />
  <g
     id="g21"
     transform="matrix(3.2180564,0,0,3.2180564,58.677893,214.62493)">
    <svg
       id="svg19"
       version="1.1"
       viewBox="33.039 70.197 17.207 17.596"
       height="17.596001"
       width="17.207001">
      <defs
         id="defs9">
        <linearGradient
           gradientUnits="userSpaceOnUse"
           gradientTransform="scale(0.97405792,1.026633)"
           id="linearGradientSjw41g8274"
           y2="76.945709"
           x2="46.451035"
           y1="76.945709"
           x1="39.052094">
          <stop
             id="stop4"
             stop-color="#ff6fa0"
             offset="0%" />
          <stop
             id="stop6"
             stop-color="#ff6fa0"
             offset="100%" />
        </linearGradient>
      </defs>
      <g
         id="g11" />
      <g
         id="g13" />
      <g
         id="g17">
        <path
           inkscape:connector-curvature="0"
           id="path15"
           style="fill:url(#linearGradientSjw41g8274);stroke:none"
           d="m 38.039,76.873 c 0,-0.928 0.709,-1.676 1.594,-1.676 h 4.027 c 0.877,0 1.586,0.748 1.586,1.676 v 4.24 c 0,0.926 -0.709,1.68 -1.586,1.68 h -4.027 c -0.885,0 -1.594,-0.754 -1.594,-1.68 z" />
      </g>
    </svg>
  </g>
  <g
     id="g40"
     transform="matrix(3.2180564,0,0,3.2180564,22.688094,214.62493)">
    <svg
       id="svg38"
       version="1.1"
       viewBox="21.865 70.197 17.203 17.596"
       height="17.596001"
       width="17.202999">
      <defs
         id="defs28">
        <linearGradient
           gradientUnits="userSpaceOnUse"
           gradientTransform="scale(0.97378758,1.026918)"
           id="linearGradientSjw41g827a"
           y2="76.924347"
           x2="34.985043"
           y1="76.924347"
           x1="27.588152">
          <stop
             id="stop23"
             stop-color="#ff9fbf"
             offset="0%" />
          <stop
             id="stop25"
             stop-color="#ff9fbf"
             offset="100%" />
        </linearGradient>
      </defs>
      <g
         id="g30" />
      <g
         id="g32" />
      <g
         id="g36">
        <path
           inkscape:connector-curvature="0"
           id="path34"
           style="fill:url(#linearGradientSjw41g827a);stroke:none"
           d="m 26.865,76.873 c 0,-0.928 0.711,-1.676 1.578,-1.676 h 4.039 c 0.881,0 1.586,0.748 1.586,1.676 v 4.24 c 0,0.926 -0.705,1.68 -1.586,1.68 h -4.039 c -0.867,0 -1.578,-0.754 -1.578,-1.68 z" />
      </g>
    </svg>
  </g>
  <g
     id="g59"
     transform="matrix(3.2180564,0,0,3.2180564,93.404893,214.62493)">
    <svg
       id="svg57"
       version="1.1"
       viewBox="43.826 70.197 17.195 17.596"
       height="17.596001"
       width="17.195">
      <defs
         id="defs47">
        <linearGradient
           gradientUnits="userSpaceOnUse"
           gradientTransform="scale(0.97324666,1.0274888)"
           id="linearGradientSjw41g827g"
           y2="76.881622"
           x2="57.560947"
           y1="76.881622"
           x1="50.168167">
          <stop
             id="stop42"
             stop-color="#ff4081"
             offset="0%" />
          <stop
             id="stop44"
             stop-color="#ff4081"
             offset="100%" />
        </linearGradient>
      </defs>
      <g
         id="g49" />
      <g
         id="g51" />
      <g
         id="g55">
        <path
           inkscape:connector-curvature="0"
           id="path53"
           style="fill:url(#linearGradientSjw41g827g);stroke:none"
           d="m 48.826,76.873 c 0,-0.928 0.703,-1.676 1.576,-1.676 h 4.043 c 0.865,0 1.576,0.748 1.576,1.676 v 4.24 c 0,0.926 -0.711,1.68 -1.576,1.68 h -4.043 c -0.873,0 -1.576,-0.754 -1.576,-1.68 z" />
      </g>
    </svg>
  </g>
  <g
     id="g78"
     transform="matrix(3.2180564,0,0,3.2180564,-5.8868661,-2.4327792)">
    <svg
       id="svg76"
       version="1.1"
       viewBox="13 3 74.208275 95"
       height="95"
       width="74.208275">
      <defs
         id="defs66">
        <linearGradient
           gradientUnits="userSpaceOnUse"
           gradientTransform="scale(0.8691326,1.1505724)"
           id="linearGradientSjw41g827m"
           y2="43.891197"
           x2="94.586571"
           y1="43.891197"
           x1="20.710304">
          <stop
             id="stop61"
             stop-color="#8bc34a"
             offset="0%" />
          <stop
             id="stop63"
             stop-color="#8bc34a"
             offset="100%" />
        </linearGradient>
      </defs>
      <g
         id="g68" />
      <g
         id="g70" />
      <g
         id="g74">
        <path
           inkscape:connector-curvature="0"
           id="path72"
           style="fill:url(#linearGradientSjw41g827m);stroke:none"
           d="M 65.527,26.766 65.5,17.173 C 65.5,12.084 61.525,8 56.568,8 H 26.709 C 21.758,8 18,12.084 18,17.173 V 83.719 C 18,88.809 21.758,93 26.709,93 h 29.859 c 4.957,0 8.932,-4.191 8.932,-9.281 l 0.027,-15.453 c 1.287,0.701 2.779,1.086 4.312,1.086 4.934,0 8.948,-4.021 8.948,-8.955 0,-2.362 -0.921,-4.518 -2.422,-6.119 1.216,-0.729 2.112,-1.949 2.413,-3.418 l 3.326,-16.268 c 0.287,-1.406 -0.025,-2.882 -0.855,-4.05 -0.83,-1.167 -2.122,-1.946 -3.543,-2.137 z M 26.709,12 h 29.859 c 2.641,0 4.682,2.272 4.682,5.048 l 0.044,9.124 -5.052,-0.686 0.008,-5.25 C 56.25,18.842 55.15,18 53.84,18 H 29.449 C 28.133,18 27,18.608 27,20.002 V 68.977 C 27,70.359 28.133,72 29.449,72 H 53.84 C 55.15,72 56,70.359 56,68.977 V 67 h 5 V 83.719 C 61,86.488 59.209,89 56.568,89 H 26.709 C 24.08,89 22,86.488 22,83.719 V 17.173 C 22,14.397 24.08,12 26.709,12 Z m 23.83,51 c -0.854,1 -2.537,2.442 -4.384,2.442 -2.733,0 -4.957,-2.305 -4.957,-5.038 0,-2.65 2.095,-4.883 4.724,-5.013 L 47.178,51.4 42.173,31.152 39.396,29.291 c -0.116,0.03 -0.253,0.056 -0.409,0.056 -1.719,0 -3.118,-1.399 -3.118,-3.118 0,-1.72 1.399,-3.12 3.118,-3.12 1.719,0 3.117,1.399 3.117,3.118 0,0.125 -0.016,0.239 -0.038,0.344 l 2.259,1.509 32.84,4.389 c 0.3,0.04 0.57,0.203 0.746,0.45 0.175,0.246 0.24,0.553 0.18,0.85 l -3.326,16.265 c -0.101,0.493 -0.525,0.848 -1.027,0.867 l -22.772,0.875 -1.517,4.893 C 50.138,57.28 50.642,58 50.904,59 h 14.349 c 0.655,-2 2.483,-3.396 4.587,-3.396 2.674,0 4.85,2.152 4.85,4.825 0,2.674 -2.176,5.045 -4.85,5.045 C 68.002,65.474 66.344,64 65.52,63 Z" />
      </g>
    </svg>
  </g>
  <g
     id="g97"
     transform="matrix(8.4569722,0,0,1.8791524,96.722097,261.93182)">
    <svg
       id="svg95"
       version="1.1"
       class="thumb"
       viewBox="-5 79.525 186.742 17.219"
       height="17.219"
       width="186.742">
      <defs
         id="defs85">
        <linearGradient
           gradientUnits="userSpaceOnUse"
           gradientTransform="matrix(4.9480191,0,0,0.20210108,5.8835186,0)"
           id="linearGradientSjw41g827s"
           y2="436.09119"
           x2="35.719749"
           y1="436.09119"
           x1="0">
          <stop
             id="stop80"
             stop-color="#8bc34a"
             offset="0%" />
          <stop
             id="stop82"
             stop-color="#8bc34a"
             offset="100%" />
        </linearGradient>
      </defs>
      <g
         id="g87" />
      <g
         id="g89" />
      <g
         id="g93">
        <rect
           x="5.8835187"
           id="rect91"
           style="fill:url(#linearGradientSjw41g827s);stroke:none"
           height="7.2189999"
           width="176.742"
           y="84.525002" />
      </g>
    </svg>
  </g>
  <g
     id="g112"
     transform="matrix(2.1977328,0,0,2.1977328,265.78747,-7.2217591)">
    <svg
       id="svg110"
       version="1.1"
       style="overflow:visible"
       height="187"
       width="598.73047">
      <defs
         id="defs104">
        <linearGradient
           gradientUnits="userSpaceOnUse"
           gradientTransform="scale(2.4570794,0.40698725)"
           id="linearGradientSjw41g82710"
           y2="-64.129776"
           x2="242.70255"
           y1="-64.129776"
           x1="1.9087702">
          <stop
             id="stop99"
             stop-color="#ff4081"
             offset="0%" />
          <stop
             id="stop101"
             stop-color="#ff4081"
             offset="100%" />
        </linearGradient>
      </defs>
      <g
         id="g108"
         transform="translate(0,95.25)">
        <path
           inkscape:connector-curvature="0"
           style="fill:url(#linearGradientSjw41g82710)"
           id="path106"
           data-y="0"
           data-x="0"
           data-font-scale="contain"
           data-font-src="/Content/clientfonts/audiowide.woff"
           data-font="Audiowide"
           data-href=""
           data-xmlspace="preserve"
           data-dy="0"
           data-dx="0"
           data-offset="0.5"
           data-side="left"
           data-letterspacing="0"
           data-font-size="100"
           data-text-anchor="middle"
           data-textpath="ShopLystr"
           d="m 74.66,-20.61 v 0 q 0,3.76 -0.95,6.77 -0.96,3 -2.52,5.3 -1.56,2.29 -3.66,3.9 -2.1,1.61 -4.35,2.64 -2.24,1.02 -4.56,1.51 Q 56.3,0 54.25,0 V 0 H 5.27 v -12.7 h 48.98 q 3.66,0 5.69,-2.14 2.02,-2.15 2.02,-5.77 v 0 q 0,-1.75 -0.53,-3.22 -0.54,-1.46 -1.54,-2.54 -1,-1.07 -2.44,-1.66 -1.44,-0.58 -3.2,-0.58 v 0 h -29.2 q -3.08,0 -6.64,-1.1 -3.57,-1.1 -6.62,-3.54 -3.05,-2.44 -5.08,-6.4 -2.02,-3.95 -2.02,-9.67 v 0 q 0,-5.71 2.02,-9.64 2.03,-3.93 5.08,-6.4 3.05,-2.46 6.62,-3.56 3.56,-1.1 6.64,-1.1 v 0 h 43.21 v 12.7 H 25.05 q -3.61,0 -5.64,2.19 -2.03,2.2 -2.03,5.81 v 0 q 0,3.67 2.03,5.79 2.03,2.12 5.64,2.12 v 0 h 29.2 0.1 q 2.05,0.05 4.34,0.57 2.3,0.51 4.57,1.58 2.27,1.08 4.32,2.71 2.05,1.64 3.64,3.93 1.58,2.3 2.51,5.28 0.93,2.97 0.93,6.73 z m 67.82203,-14.4 V 0 h -12.7 v -35.01 q 0,-2.49 -1.27,-3.78 -1.27,-1.3 -3.8,-1.3 v 0 h -22.91 v -12.69 h 22.91 q 1.8,0 3.8,0.41 2.01,0.42 3.98,1.3 1.98,0.87 3.79,2.27 1.8,1.39 3.17,3.37 1.37,1.97 2.2,4.56 0.83,2.59 0.83,5.86 z M 96.682031,-75.1 V 0 h -12.7 v -75.1 z m 114.842499,40.09 v 17.19 q 0,3.27 -0.83,5.88 -0.83,2.61 -2.2,4.59 -1.37,1.98 -3.17,3.37 -1.81,1.39 -3.79,2.27 -1.97,0.88 -4,1.29 -2.03,0.42 -3.83,0.42 v 0 h -22.9 q -2.64,0 -5.77,-0.93 -3.12,-0.93 -5.78,-3.05 -2.66,-2.12 -4.44,-5.52 -1.79,-3.39 -1.79,-8.32 v 0 -17.19 q 0,-4.88 1.79,-8.28 1.78,-3.39 4.44,-5.51 2.66,-2.13 5.78,-3.06 3.13,-0.92 5.77,-0.92 v 0 h 22.9 q 4.88,0 8.3,1.75 3.42,1.76 5.52,4.42 2.09,2.66 3.05,5.79 0.95,3.12 0.95,5.81 z m -12.7,17.19 v -17.09 q 0,-2.64 -1.31,-3.91 -1.32,-1.27 -3.81,-1.27 v 0 h -22.81 q -2.54,0 -3.85,1.3 -1.32,1.29 -1.32,3.78 v 0 17.19 q 0,2.49 1.32,3.81 1.31,1.31 3.85,1.31 v 0 h 22.81 q 2.58,0 3.85,-1.31 1.27,-1.32 1.27,-3.81 z m 81.69289,-17.19 v 17.19 q 0,3.27 -0.83,5.88 -0.83,2.61 -2.2,4.59 -1.36,1.98 -3.17,3.37 -1.81,1.39 -3.79,2.27 -1.97,0.88 -3.97,1.29 -2.01,0.42 -3.81,0.42 v 0 h -22.9 v -12.7 h 22.9 q 2.54,0 3.81,-1.31 1.26,-1.32 1.26,-3.81 v 0 -17.09 q 0,-2.64 -1.29,-3.91 -1.29,-1.27 -3.78,-1.27 v 0 h -22.81 q -2.58,0 -3.9,1.3 -1.32,1.29 -1.32,3.78 v 0 51.51 h -12.7 v -51.51 q 0,-3.27 0.83,-5.86 0.83,-2.59 2.23,-4.56 1.39,-1.98 3.19,-3.37 1.81,-1.4 3.79,-2.27 1.98,-0.88 4,-1.3 2.03,-0.41 3.79,-0.41 v 0 h 22.9 q 3.27,0 5.86,0.83 2.58,0.83 4.56,2.19 1.98,1.37 3.37,3.18 1.39,1.8 2.27,3.78 0.88,1.98 1.3,3.98 0.41,2 0.41,3.81 z m 76.56297,22.31 V 0 h -57.91 q -1.37,0 -2.54,-0.49 -1.17,-0.49 -2.03,-1.34 -0.85,-0.86 -1.34,-2.03 -0.49,-1.17 -0.49,-2.54 v 0 -63.62 h 12.7 v 57.32 z m 65.86867,-40.08 V 5.08 q 0,3.27 -0.83,5.88 -0.83,2.61 -2.2,4.59 -1.36,1.98 -3.17,3.37 -1.81,1.39 -3.79,2.27 -1.97,0.88 -3.97,1.3 -2.01,0.41 -3.81,0.41 v 0 h -22.9 V 10.21 h 22.9 q 2.54,0 3.81,-1.32 1.26,-1.32 1.26,-3.81 v 0 -57.86 z m -17.77,40.08 V 0 h -22.9 q -2.74,0 -5.84,-0.93 -3.1,-0.93 -5.78,-3.05 -2.69,-2.12 -4.45,-5.52 -1.76,-3.39 -1.76,-8.32 v 0 -34.96 h 12.7 v 34.96 q 0,2.49 1.32,3.81 1.32,1.31 3.9,1.31 v 0 z m 80.9025,-5.12 v 0 q 0,3.27 -0.83,5.88 -0.83,2.61 -2.19,4.59 -1.37,1.98 -3.18,3.37 -1.81,1.39 -3.78,2.27 -1.98,0.88 -4.01,1.29 -2.02,0.42 -3.83,0.42 v 0 h -34.37 v -12.7 h 34.27 q 2.59,0 3.91,-1.31 1.32,-1.32 1.32,-3.81 v 0 q -0.25,-5.08 -5.13,-5.08 v 0 h -19.68 q -4.2,0 -7.13,-1.47 -2.93,-1.46 -4.76,-3.66 -1.83,-2.19 -2.63,-4.73 -0.81,-2.54 -0.81,-4.74 v 0 q 0,-4.25 1.51,-7.15 1.52,-2.91 3.81,-4.72 2.3,-1.8 4.98,-2.61 2.69,-0.8 5.03,-0.8 v 0 h 31.2 v 12.69 h -31.1 q -0.98,0 -1.54,0.22 -0.56,0.22 -0.83,0.59 -0.27,0.36 -0.32,0.78 -0.04,0.41 -0.04,0.8 v 0 q 0.04,0.79 0.29,1.23 0.24,0.43 0.61,0.63 0.37,0.2 0.83,0.22 0.46,0.02 0.9,0.02 v 0 h 19.68 q 4.88,0 8.3,1.76 3.42,1.76 5.52,4.42 2.1,2.66 3.05,5.79 0.95,3.12 0.95,5.81 z m 56.01321,-34.96 v 12.69 h -22.17 V 0 h -12.84 v -40.09 h -16.51 v -12.69 h 16.51 v -17.24 h 12.84 v 17.24 z m 54.24468,0 v 12.69 h -28.57 q -2.58,0 -3.9,1.3 -1.32,1.29 -1.32,3.78 v 0 V 0 h -12.7 v -35.01 q 0,-3.27 0.83,-5.86 0.83,-2.59 2.23,-4.56 1.39,-1.98 3.19,-3.37 1.81,-1.4 3.79,-2.27 1.98,-0.88 4,-1.3 2.03,-0.41 3.79,-0.41 v 0 z" />
      </g>
    </svg>
  </g>
</svg>
