<svg class="thumb" width="1000" height="1000" viewBox="0,0,600,600" xmlns="http://www.w3.org/2000/svg" xmlns:inkscape="http://www.inkscape.org/namespaces/inkscape" xmlns:sodipodi="http://sodipodi.sourceforge.net/DTD/sodipodi-0.dtd" xmlns:xlink="http://www.w3.org/1999/xlink" xmlns:ns1="http://www.inkscape.org/namespaces/inkscape" xmlns:sketch="http://www.bohemiancoding.com/sketch/ns">
  <defs></defs>
  <g transform="matrix(0.6314,0,0,0.6314,-57.3363,96.2664)">
    <g transform="matrix(5.0967,0,0,5.0967,516.8649,344.6779)">
      <svg width="17.207" height="17.596000000000004" viewBox="33.039,70.197,17.207,17.596000000000004">
        <defs>
          <linearGradient x1="0" y1="0.5" x2="1" y2="0.5" id="linearGradientSjw41g8274">
            <stop offset="0%" stop-color="#ff6fa0"></stop>
            <stop offset="100%" stop-color="#ff6fa0"></stop>
          </linearGradient>
        </defs>
        <g></g>
        <g></g>
        <g>
          <path d="M38.039,76.873c0-0.928,0.709-1.676,1.594-1.676h4.027c0.877,0,1.586,0.748,1.586,1.676v4.24   c0,0.926-0.709,1.68-1.586,1.68h-4.027c-0.885,0-1.594-0.754-1.594-1.68V76.873z" fill="url('#linearGradientSjw41g8274')" stroke="none" style=""></path>
        </g>
      </svg>
    </g>
    <g transform="matrix(5.0967,0,0,5.0967,459.8649,344.6779)">
      <svg width="17.203" height="17.596000000000004" viewBox="21.865,70.197,17.203,17.596000000000004">
        <defs>
          <linearGradient x1="0" y1="0.5" x2="1" y2="0.5" id="linearGradientSjw41g827a">
            <stop offset="0%" stop-color="#ff9fbf"></stop>
            <stop offset="100%" stop-color="#ff9fbf"></stop>
          </linearGradient>
        </defs>
        <g></g>
        <g></g>
        <g>
          <path d="M26.865,76.873c0-0.928,0.711-1.676,1.578-1.676h4.039c0.881,0,1.586,0.748,1.586,1.676v4.24   c0,0.926-0.705,1.68-1.586,1.68h-4.039c-0.867,0-1.578-0.754-1.578-1.68V76.873z" fill="url('#linearGradientSjw41g827a')" stroke="none" style=""></path>
        </g>
      </svg>
    </g>
    <g transform="matrix(5.0967,0,0,5.0967,571.8649,344.6779)">
      <svg width="17.195" height="17.596000000000004" viewBox="43.826,70.197,17.195,17.596000000000004">
        <defs>
          <linearGradient x1="0" y1="0.5" x2="1" y2="0.5" id="linearGradientSjw41g827g">
            <stop offset="0%" stop-color="#ff4081"></stop>
            <stop offset="100%" stop-color="#ff4081"></stop>
          </linearGradient>
        </defs>
        <g></g>
        <g></g>
        <g>
          <path d="M48.826,76.873c0-0.928,0.703-1.676,1.576-1.676h4.043c0.865,0,1.576,0.748,1.576,1.676v4.24   c0,0.926-0.711,1.68-1.576,1.68h-4.043c-0.873,0-1.576-0.754-1.576-1.68V76.873z" fill="url('#linearGradientSjw41g827g')" stroke="none" style=""></path>
        </g>
      </svg>
    </g>
    <g transform="matrix(5.0967,0,0,5.0967,414.6084,0.9058)">
      <svg width="74.20827478785387" height="95" viewBox="13,3,74.20827478785387,95">
        <defs>
          <linearGradient x1="0" y1="0.5" x2="1" y2="0.5" id="linearGradientSjw41g827m">
            <stop offset="0%" stop-color="#8bc34a"></stop>
            <stop offset="100%" stop-color="#8bc34a"></stop>
          </linearGradient>
        </defs>
        <g></g>
        <g></g>
        <g>
          <path fill="url('#linearGradientSjw41g827m')" d="M65.527,26.766L65.5,17.173C65.5,12.084,61.525,8,56.568,8H26.709C21.758,8,18,12.084,18,17.173v66.546  C18,88.809,21.758,93,26.709,93h29.859c4.957,0,8.932-4.191,8.932-9.281l0.027-15.453c1.287,0.701,2.779,1.086,4.312,1.086  c4.934,0,8.948-4.021,8.948-8.955c0-2.362-0.921-4.518-2.422-6.119c1.216-0.729,2.112-1.949,2.413-3.418l3.326-16.268  c0.287-1.406-0.025-2.882-0.855-4.05c-0.83-1.167-2.122-1.946-3.543-2.137L65.527,26.766z M26.709,12h29.859  c2.641,0,4.682,2.272,4.682,5.048l0.044,9.124l-5.052-0.686l0.008-5.25c0-1.394-1.1-2.236-2.41-2.236H29.449  C28.133,18,27,18.608,27,20.002v48.975C27,70.359,28.133,72,29.449,72H53.84C55.15,72,56,70.359,56,68.977V67h5v16.719  C61,86.488,59.209,89,56.568,89H26.709C24.08,89,22,86.488,22,83.719V17.173C22,14.397,24.08,12,26.709,12z M50.539,63  c-0.854,1-2.537,2.442-4.384,2.442c-2.733,0-4.957-2.305-4.957-5.038c0-2.65,2.095-4.883,4.724-5.013l1.256-3.991l-5.005-20.248  l-2.777-1.861c-0.116,0.03-0.253,0.056-0.409,0.056c-1.719,0-3.118-1.399-3.118-3.118c0-1.72,1.399-3.12,3.118-3.12  s3.117,1.399,3.117,3.118c0,0.125-0.016,0.239-0.038,0.344l2.259,1.509l32.84,4.389c0.3,0.04,0.57,0.203,0.746,0.45  c0.175,0.246,0.24,0.553,0.18,0.85l-3.326,16.265c-0.101,0.493-0.525,0.848-1.027,0.867l-22.772,0.875l-1.517,4.893  C50.138,57.28,50.642,58,50.904,59h14.349c0.655-2,2.483-3.396,4.587-3.396c2.674,0,4.85,2.152,4.85,4.825  c0,2.674-2.176,5.045-4.85,5.045c-1.838,0-3.496-1.474-4.32-2.474H50.539z" stroke="none" style=""></path>
        </g>
      </svg>
    </g>
    <g transform="matrix(4.8393,0,0,1.0753,114.1358,605.8602)">
      <svg width="186.742" height="17.218999999999994" viewBox="-5,79.525,186.742,17.218999999999994" class="thumb">
        <defs>
          <linearGradient x1="0" y1="0.5" x2="1" y2="0.5" id="linearGradientSjw41g827s">
            <stop offset="0%" stop-color="#8bc34a"></stop>
            <stop offset="100%" stop-color="#8bc34a"></stop>
          </linearGradient>
        </defs>
        <g></g>
        <g></g>
        <g>
          <rect y="84.525" width="176.742" height="7.219" fill="url('#linearGradientSjw41g827s')" stroke="none" style=""></rect>
        </g>
      </svg>
    </g>
    <g transform="matrix(1.2576,0,0,1.2576,182.4073,451.8435)">
      <svg width="598.73046875" height="187" style="overflow: visible;">
        <defs>
          <linearGradient x1="0" y1="0.5" x2="1" y2="0.5" id="linearGradientSjw41g82710">
            <stop offset="0%" stop-color="#ff4081"></stop>
            <stop offset="100%" stop-color="#ff4081"></stop>
          </linearGradient>
        </defs>
        <g transform="matrix(1,0,0,1,0,95.25)">
          <path d="M 74.66-20.61L 74.66-20.61Q 74.66-16.85  73.71-13.84Q 72.75-10.84  71.19-8.54Q 69.63-6.25  67.53-4.64Q 65.43-3.03  63.18-2Q 60.94-0.98  58.62-0.49Q 56.3 0  54.25 0L 54.25 0L 5.27 0L 5.27-12.7L 54.25-12.7Q 57.91-12.7  59.94-14.84Q 61.96-16.99  61.96-20.61L 61.96-20.61Q 61.96-22.36  61.43-23.83Q 60.89-25.29  59.89-26.37Q 58.89-27.44  57.45-28.03Q 56.01-28.61  54.25-28.61L 54.25-28.61L 25.05-28.61Q 21.97-28.61  18.41-29.71Q 14.84-30.81  11.79-33.25Q 8.74-35.69  6.71-39.65Q 4.69-43.6  4.69-49.32L 4.69-49.32Q 4.69-55.03  6.71-58.96Q 8.74-62.89  11.79-65.36Q 14.84-67.82  18.41-68.92Q 21.97-70.02  25.05-70.02L 25.05-70.02L 68.26-70.02L 68.26-57.32L 25.05-57.32Q 21.44-57.32  19.41-55.13Q 17.38-52.93  17.38-49.32L 17.38-49.32Q 17.38-45.65  19.41-43.53Q 21.44-41.41  25.05-41.41L 25.05-41.41L 54.25-41.41L 54.35-41.41Q 56.4-41.36  58.69-40.84Q 60.99-40.33  63.26-39.26Q 65.53-38.18  67.58-36.55Q 69.63-34.91  71.22-32.62Q 72.8-30.32  73.73-27.34Q 74.66-24.37  74.66-20.61ZM 142.48203124999998-35.01L 142.48203124999998 0L 129.78203125 0L 129.78203125-35.01Q 129.78203125-37.5  128.51203124999998-38.79Q 127.24203124999997-40.09  124.71203124999997-40.09L 124.71203124999997-40.09L 101.80203124999997-40.09L 101.80203124999997-52.78L 124.71203124999997-52.78Q 126.51203124999998-52.78  128.51203124999998-52.37Q 130.52203124999997-51.95  132.49203124999997-51.07Q 134.47203125-50.2  136.28203125-48.8Q 138.08203124999997-47.41  139.45203124999998-45.43Q 140.82203124999998-43.46  141.65203124999996-40.87Q 142.48203124999998-38.28  142.48203124999998-35.01L 142.48203124999998-35.01ZM 96.68203124999997-75.1L 96.68203124999997 0L 83.98203124999998 0L 83.98203124999998-75.1L 96.68203124999997-75.1ZM 211.52453124999997-35.01L 211.52453124999997-17.82Q 211.52453124999997-14.55  210.69453124999995-11.94Q 209.86453124999997-9.33  208.49453124999997-7.35Q 207.12453124999996-5.37  205.32453124999998-3.98Q 203.51453124999998-2.59  201.53453125-1.71Q 199.56453124999996-0.83  197.53453125-0.42Q 195.50453124999996 0  193.70453124999997 0L 193.70453124999997 0L 170.80453124999997 0Q 168.16453124999998 0  165.03453125-0.93Q 161.91453124999998-1.86  159.25453124999996-3.98Q 156.59453124999996-6.1  154.81453124999996-9.5Q 153.02453124999997-12.89  153.02453124999997-17.82L 153.02453124999997-17.82L 153.02453124999997-35.01Q 153.02453124999997-39.89  154.81453124999996-43.29Q 156.59453124999996-46.68  159.25453124999996-48.8Q 161.91453124999998-50.93  165.03453125-51.86Q 168.16453124999998-52.78  170.80453124999997-52.78L 170.80453124999997-52.78L 193.70453124999997-52.78Q 198.58453124999997-52.78  202.00453124999996-51.03Q 205.42453124999997-49.27  207.52453124999997-46.61Q 209.61453124999997-43.95  210.57453124999998-40.82Q 211.52453124999997-37.7  211.52453124999997-35.01L 211.52453124999997-35.01ZM 198.82453124999998-17.82L 198.82453124999998-34.91Q 198.82453124999998-37.55  197.51453124999998-38.82Q 196.19453124999995-40.09  193.70453124999997-40.09L 193.70453124999997-40.09L 170.89453124999997-40.09Q 168.35453124999998-40.09  167.04453124999998-38.79Q 165.72453124999998-37.5  165.72453124999998-35.01L 165.72453124999998-35.01L 165.72453124999998-17.82Q 165.72453124999998-15.33  167.04453124999998-14.01Q 168.35453124999998-12.7  170.89453124999997-12.7L 170.89453124999997-12.7L 193.70453124999997-12.7Q 196.28453125-12.7  197.55453124999997-14.01Q 198.82453124999998-15.33  198.82453124999998-17.82L 198.82453124999998-17.82ZM 280.51742187499997-35.01L 280.51742187499997-17.82Q 280.51742187499997-14.55  279.687421875-11.94Q 278.857421875-9.33  277.487421875-7.35Q 276.127421875-5.37  274.317421875-3.98Q 272.507421875-2.59  270.527421875-1.71Q 268.557421875-0.83  266.557421875-0.42Q 264.547421875 0  262.747421875 0L 262.747421875 0L 239.847421875 0L 239.847421875-12.7L 262.747421875-12.7Q 265.287421875-12.7  266.557421875-14.01Q 267.817421875-15.33  267.817421875-17.82L 267.817421875-17.82L 267.817421875-34.91Q 267.817421875-37.55  266.527421875-38.82Q 265.237421875-40.09  262.747421875-40.09L 262.747421875-40.09L 239.93742187499998-40.09Q 237.357421875-40.09  236.037421875-38.79Q 234.717421875-37.5  234.717421875-35.01L 234.717421875-35.01L 234.717421875 16.5L 222.017421875 16.5L 222.017421875-35.01Q 222.017421875-38.28  222.847421875-40.87Q 223.677421875-43.46  225.077421875-45.43Q 226.467421875-47.41  228.267421875-48.8Q 230.077421875-50.2  232.057421875-51.07Q 234.037421875-51.95  236.057421875-52.37Q 238.087421875-52.78  239.847421875-52.78L 239.847421875-52.78L 262.747421875-52.78Q 266.01742187499997-52.78  268.607421875-51.95Q 271.187421875-51.12  273.167421875-49.76Q 275.147421875-48.39  276.537421875-46.58Q 277.927421875-44.78  278.807421875-42.8Q 279.687421875-40.82  280.107421875-38.82Q 280.51742187499997-36.82  280.51742187499997-35.01L 280.51742187499997-35.01ZM 357.080390625-12.7L 357.080390625 0L 299.170390625 0Q 297.800390625 0  296.630390625-0.49Q 295.460390625-0.98  294.600390625-1.83Q 293.750390625-2.69  293.260390625-3.86Q 292.770390625-5.03  292.770390625-6.4L 292.770390625-6.4L 292.770390625-70.02L 305.470390625-70.02L 305.470390625-12.7L 357.080390625-12.7ZM 422.94906249999997-52.78L 422.94906249999997 5.08Q 422.94906249999997 8.35  422.1190624999999 10.96Q 421.28906249999994 13.57  419.91906249999994 15.55Q 418.5590624999999 17.53  416.7490624999999 18.92Q 414.9390624999999 20.31  412.95906249999996 21.19Q 410.98906249999993 22.07  408.98906249999993 22.49Q 406.97906249999994 22.9  405.17906249999993 22.9L 405.17906249999993 22.9L 382.27906249999995 22.9L 382.27906249999995 10.21L 405.17906249999993 10.21Q 407.71906249999995 10.21  408.98906249999993 8.89Q 410.2490624999999 7.57  410.2490624999999 5.08L 410.2490624999999 5.08L 410.2490624999999-52.78L 422.94906249999997-52.78ZM 405.17906249999993-12.7L 405.17906249999993 0L 382.27906249999995 0Q 379.53906249999994 0  376.4390624999999-0.93Q 373.33906249999995-1.86  370.65906249999995-3.98Q 367.96906249999995-6.1  366.20906249999996-9.5Q 364.44906249999997-12.89  364.44906249999997-17.82L 364.44906249999997-17.82L 364.44906249999997-52.78L 377.14906249999996-52.78L 377.14906249999996-17.82Q 377.14906249999996-15.33  378.46906249999995-14.01Q 379.78906249999994-12.7  382.3690624999999-12.7L 382.3690624999999-12.7L 405.17906249999993-12.7ZM 486.0815624999999-17.82L 486.0815624999999-17.82Q 486.0815624999999-14.55  485.25156249999986-11.94Q 484.4215624999999-9.33  483.06156249999987-7.35Q 481.6915624999999-5.37  479.88156249999986-3.98Q 478.0715624999999-2.59  476.1015624999999-1.71Q 474.12156249999987-0.83  472.0915624999999-0.42Q 470.0715624999999 0  468.26156249999985 0L 468.26156249999985 0L 433.8915624999999 0L 433.8915624999999-12.7L 468.1615624999999-12.7Q 470.75156249999986-12.7  472.0715624999999-14.01Q 473.3915624999999-15.33  473.3915624999999-17.82L 473.3915624999999-17.82Q 473.1415624999999-22.9  468.26156249999985-22.9L 468.26156249999985-22.9L 448.5815624999999-22.9Q 444.38156249999986-22.9  441.4515624999999-24.37Q 438.5215624999999-25.83  436.69156249999986-28.03Q 434.8615624999999-30.22  434.06156249999987-32.76Q 433.25156249999986-35.3  433.25156249999986-37.5L 433.25156249999986-37.5Q 433.25156249999986-41.75  434.7615624999999-44.65Q 436.2815624999999-47.56  438.5715624999999-49.37Q 440.87156249999987-51.17  443.5515624999999-51.98Q 446.2415624999999-52.78  448.5815624999999-52.78L 448.5815624999999-52.78L 479.7815624999999-52.78L 479.7815624999999-40.09L 448.68156249999987-40.09Q 447.7015624999999-40.09  447.1415624999999-39.87Q 446.5815624999999-39.65  446.31156249999987-39.28Q 446.0415624999999-38.92  445.9915624999999-38.5Q 445.9515624999999-38.09  445.9515624999999-37.7L 445.9515624999999-37.7Q 445.9915624999999-36.91  446.2415624999999-36.47Q 446.4815624999999-36.04  446.8515624999999-35.84Q 447.2215624999999-35.64  447.68156249999987-35.62Q 448.1415624999999-35.6  448.5815624999999-35.6L 448.5815624999999-35.6L 468.26156249999985-35.6Q 473.1415624999999-35.6  476.56156249999987-33.84Q 479.9815624999999-32.08  482.0815624999999-29.42Q 484.18156249999987-26.76  485.13156249999986-23.63Q 486.0815624999999-20.51  486.0815624999999-17.82ZM 542.0947656249999-52.78L 542.0947656249999-40.09L 519.9247656249998-40.09L 519.9247656249998 0L 507.0847656249999 0L 507.0847656249999-40.09L 490.5747656249999-40.09L 490.5747656249999-52.78L 507.0847656249999-52.78L 507.0847656249999-70.02L 519.9247656249998-70.02L 519.9247656249998-52.78L 542.0947656249999-52.78ZM 596.3394531249999-52.78L 596.3394531249999-40.09L 567.7694531249999-40.09Q 565.1894531249999-40.09  563.8694531249998-38.79Q 562.5494531249999-37.5  562.5494531249999-35.01L 562.5494531249999-35.01L 562.5494531249999 0L 549.8494531249999 0L 549.8494531249999-35.01Q 549.8494531249999-38.28  550.6794531249999-40.87Q 551.5094531249999-43.46  552.9094531249999-45.43Q 554.2994531249999-47.41  556.0994531249999-48.8Q 557.9094531249999-50.2  559.8894531249999-51.07Q 561.8694531249998-51.95  563.8894531249999-52.37Q 565.9194531249999-52.78  567.6794531249999-52.78L 567.6794531249999-52.78L 596.3394531249999-52.78Z" data-textpath="ShopLystr" data-text-anchor="middle" data-font-size="100" data-letterspacing="0" data-side="left" data-offset="0.5" data-dx="0" data-dy="0" data-xmlspace="preserve" data-href="" data-font="Audiowide" data-font-src="/Content/clientfonts/audiowide.woff" data-font-scale="contain" transform="translate(0,0)" data-x="0" data-y="0" fill="url('#linearGradientSjw41g82710')"></path>
        </g>
      </svg>
    </g>
  </g>
</svg>